{
  "Hash Text Request" : {
    "transaction" : "Hash Text Request",
    "sampleCount" : 1697126,
    "errorCount" : 0,
    "errorPct" : 0.0,
    "meanResTime" : 295.31665356608573,
    "medianResTime" : 445.0,
    "minResTime" : 0.0,
    "maxResTime" : 1269.0,
    "pct1ResTime" : 501.0,
    "pct2ResTime" : 552.0,
    "pct3ResTime" : 584.0,
    "throughput" : 5644.217849968738,
    "receivedKBytesPerSec" : 1482.7095719156157,
    "sentKBytesPerSec" : 744.1107517048629
  },
  "Total" : {
    "transaction" : "Total",
    "sampleCount" : 1697126,
    "errorCount" : 0,
    "errorPct" : 0.0,
    "meanResTime" : 295.31665356608573,
    "medianResTime" : 445.0,
    "minResTime" : 0.0,
    "maxResTime" : 1269.0,
    "pct1ResTime" : 501.0,
    "pct2ResTime" : 552.0,
    "pct3ResTime" : 584.0,
    "throughput" : 5644.217849968738,
    "receivedKBytesPerSec" : 1482.7095719156157,
    "sentKBytesPerSec" : 744.1107517048629
  }
}