{
  "Get Movies Request" : {
    "transaction" : "Get Movies Request",
    "sampleCount" : 643227,
    "errorCount" : 0,
    "errorPct" : 0.0,
    "meanResTime" : 46.783541424721925,
    "medianResTime" : 72.0,
    "minResTime" : 1.0,
    "maxResTime" : 154.0,
    "pct1ResTime" : 82.0,
    "pct2ResTime" : 83.0,
    "pct3ResTime" : 85.0,
    "throughput" : 2143.9113407216064,
    "receivedKBytesPerSec" : 443.85664475877013,
    "sentKBytesPerSec" : 263.80159075285394
  },
  "Total" : {
    "transaction" : "Total",
    "sampleCount" : 643227,
    "errorCount" : 0,
    "errorPct" : 0.0,
    "meanResTime" : 46.783541424721925,
    "medianResTime" : 72.0,
    "minResTime" : 1.0,
    "maxResTime" : 154.0,
    "pct1ResTime" : 82.0,
    "pct2ResTime" : 83.0,
    "pct3ResTime" : 85.0,
    "throughput" : 2143.9113407216064,
    "receivedKBytesPerSec" : 443.85664475877013,
    "sentKBytesPerSec" : 263.80159075285394
  }
}