{
  "Get Movies Request" : {
    "transaction" : "Get Movies Request",
    "sampleCount" : 516790,
    "errorCount" : 0,
    "errorPct" : 0.0,
    "meanResTime" : 58.235329630991345,
    "medianResTime" : 88.0,
    "minResTime" : 1.0,
    "maxResTime" : 229.0,
    "pct1ResTime" : 98.0,
    "pct2ResTime" : 99.0,
    "pct3ResTime" : 103.0,
    "throughput" : 1722.3405354423082,
    "receivedKBytesPerSec" : 1177.3812254000154,
    "sentKBytesPerSec" : 211.92862057200276
  },
  "Total" : {
    "transaction" : "Total",
    "sampleCount" : 516790,
    "errorCount" : 0,
    "errorPct" : 0.0,
    "meanResTime" : 58.235329630991345,
    "medianResTime" : 88.0,
    "minResTime" : 1.0,
    "maxResTime" : 229.0,
    "pct1ResTime" : 98.0,
    "pct2ResTime" : 99.0,
    "pct3ResTime" : 103.0,
    "throughput" : 1722.3405354423082,
    "receivedKBytesPerSec" : 1177.3812254000154,
    "sentKBytesPerSec" : 211.92862057200276
  }
}