{
  "Get Movies Request" : {
    "transaction" : "Get Movies Request",
    "sampleCount" : 723576,
    "errorCount" : 0,
    "errorPct" : 0.0,
    "meanResTime" : 41.5738526429845,
    "medianResTime" : 56.0,
    "minResTime" : 2.0,
    "maxResTime" : 473.0,
    "pct1ResTime" : 105.0,
    "pct2ResTime" : 110.0,
    "pct3ResTime" : 161.0,
    "throughput" : 2411.6225665501256,
    "receivedKBytesPerSec" : 409.11178897311004,
    "sentKBytesPerSec" : 296.7426204934725
  },
  "Total" : {
    "transaction" : "Total",
    "sampleCount" : 723576,
    "errorCount" : 0,
    "errorPct" : 0.0,
    "meanResTime" : 41.5738526429845,
    "medianResTime" : 56.0,
    "minResTime" : 2.0,
    "maxResTime" : 473.0,
    "pct1ResTime" : 105.0,
    "pct2ResTime" : 110.0,
    "pct3ResTime" : 161.0,
    "throughput" : 2411.6225665501256,
    "receivedKBytesPerSec" : 409.11178897311004,
    "sentKBytesPerSec" : 296.7426204934725
  }
}