{
  "Add Movie Request" : {
    "transaction" : "Add Movie Request",
    "sampleCount" : 73174,
    "errorCount" : 0,
    "errorPct" : 0.0,
    "meanResTime" : 38.04352638915508,
    "medianResTime" : 47.0,
    "minResTime" : 7.0,
    "maxResTime" : 1811.0,
    "pct1ResTime" : 59.0,
    "pct2ResTime" : 68.0,
    "pct3ResTime" : 98.0,
    "throughput" : 243.9206509528619,
    "receivedKBytesPerSec" : 68.54374902080396,
    "sentKBytesPerSec" : 80.98927863669243
  },
  "Get Movie Request" : {
    "transaction" : "Get Movie Request",
    "sampleCount" : 73163,
    "errorCount" : 0,
    "errorPct" : 0.0,
    "meanResTime" : 14.06253160750646,
    "medianResTime" : 19.0,
    "minResTime" : 1.0,
    "maxResTime" : 107.0,
    "pct1ResTime" : 27.0,
    "pct2ResTime" : 31.0,
    "pct3ResTime" : 44.0,
    "throughput" : 244.02063884358438,
    "receivedKBytesPerSec" : 68.33353618739223,
    "sentKBytesPerSec" : 31.635119798806297
  },
  "Update Movie Request" : {
    "transaction" : "Update Movie Request",
    "sampleCount" : 73161,
    "errorCount" : 0,
    "errorPct" : 0.0,
    "meanResTime" : 45.751643635270405,
    "medianResTime" : 57.0,
    "minResTime" : 8.0,
    "maxResTime" : 1821.0,
    "pct1ResTime" : 72.0,
    "pct2ResTime" : 82.0,
    "pct3ResTime" : 111.0,
    "throughput" : 243.9903685818337,
    "receivedKBytesPerSec" : 69.51641716163307,
    "sentKBytesPerSec" : 84.46858197439904
  },
  "Delete Movie Request" : {
    "transaction" : "Delete Movie Request",
    "sampleCount" : 73142,
    "errorCount" : 0,
    "errorPct" : 0.0,
    "meanResTime" : 40.00370512154373,
    "medianResTime" : 48.0,
    "minResTime" : 6.0,
    "maxResTime" : 1818.0,
    "pct1ResTime" : 63.0,
    "pct2ResTime" : 73.0,
    "pct3ResTime" : 104.0,
    "throughput" : 243.93839339910218,
    "receivedKBytesPerSec" : 46.63236897924879,
    "sentKBytesPerSec" : 52.11145398723644
  },
  "Total" : {
    "transaction" : "Total",
    "sampleCount" : 292640,
    "errorCount" : 0,
    "errorPct" : 0.0,
    "meanResTime" : 34.46501161837033,
    "medianResTime" : 44.0,
    "minResTime" : 1.0,
    "maxResTime" : 1821.0,
    "pct1ResTime" : 61.0,
    "pct2ResTime" : 69.0,
    "pct3ResTime" : 98.0,
    "throughput" : 975.4926798047948,
    "receivedKBytesPerSec" : 252.93096683099049,
    "sentKBytesPerSec" : 249.120171850416
  }
}