{
  "Add Movie Request" : {
    "transaction" : "Add Movie Request",
    "sampleCount" : 83688,
    "errorCount" : 0,
    "errorPct" : 0.0,
    "meanResTime" : 1519.4648695153303,
    "medianResTime" : 2258.0,
    "minResTime" : 10.0,
    "maxResTime" : 4109.0,
    "pct1ResTime" : 2373.9000000000015,
    "pct2ResTime" : 3925.0,
    "pct3ResTime" : 4012.0,
    "throughput" : 277.26223093921556,
    "receivedKBytesPerSec" : 77.98000245165437,
    "sentKBytesPerSec" : 92.05972511653641
  },
  "Get Movie Request" : {
    "transaction" : "Get Movie Request",
    "sampleCount" : 83075,
    "errorCount" : 0,
    "errorPct" : 0.0,
    "meanResTime" : 758.2353415588253,
    "medianResTime" : 1125.0,
    "minResTime" : 3.0,
    "maxResTime" : 2998.0,
    "pct1ResTime" : 1199.0,
    "pct2ResTime" : 1247.9500000000007,
    "pct3ResTime" : 2837.0,
    "throughput" : 276.04987007463234,
    "receivedKBytesPerSec" : 77.36944600724559,
    "sentKBytesPerSec" : 35.85413351555283
  },
  "Update Movie Request" : {
    "transaction" : "Update Movie Request",
    "sampleCount" : 82835,
    "errorCount" : 0,
    "errorPct" : 0.0,
    "meanResTime" : 2265.9637954970813,
    "medianResTime" : 3373.0,
    "minResTime" : 13.0,
    "maxResTime" : 5232.0,
    "pct1ResTime" : 3538.0,
    "pct2ResTime" : 5064.0,
    "pct3ResTime" : 5140.990000000002,
    "throughput" : 274.45075061046117,
    "receivedKBytesPerSec" : 78.26134685376431,
    "sentKBytesPerSec" : 95.1465004557751
  },
  "Delete Movie Request" : {
    "transaction" : "Delete Movie Request",
    "sampleCount" : 81852,
    "errorCount" : 0,
    "errorPct" : 0.0,
    "meanResTime" : 1531.9594878561168,
    "medianResTime" : 2261.0,
    "minResTime" : 11.0,
    "maxResTime" : 4102.0,
    "pct1ResTime" : 2380.0,
    "pct2ResTime" : 3921.0,
    "pct3ResTime" : 4017.0,
    "throughput" : 271.29092879657156,
    "receivedKBytesPerSec" : 51.926779339968775,
    "sentKBytesPerSec" : 58.02022793598552
  },
  "Total" : {
    "transaction" : "Total",
    "sampleCount" : 331450,
    "errorCount" : 0,
    "errorPct" : 0.0,
    "meanResTime" : 1518.3178035902827,
    "medianResTime" : 2278.0,
    "minResTime" : 3.0,
    "maxResTime" : 5232.0,
    "pct1ResTime" : 3408.0,
    "pct2ResTime" : 3451.0,
    "pct3ResTime" : 3508.0,
    "throughput" : 1097.665577114774,
    "receivedKBytesPerSec" : 285.16741731182873,
    "sentKBytesPerSec" : 280.8318839436811
  }
}